{
    "workoutScientific7Minute": "Scientific 7 minute workout",
    "workoutLeg": "Leg workout",
    "workoutNeckShoulderStretch": "Neck and shoulder stretches",
    "exerciseJumpingJacks": "Jumping jacks",
    "stepsJumpingJacks": "1. Stand with feet together and arms at the sides\n2. Jump to a position with the legs spread wide and the hands touching overhead\n3. Repeat",
    "exerciseWallSit": "Wall sit",
    "stepsWallSit": "1. Lean against the wall, facing forward and with feet planted firmly on the ground, shoulders width apart and about 2 feet away from the wall\n2. Slide down the wall, keeping the back pressed to it, until legs are at a right angle. The knees should be directly above the ankles\nQuadricep pain is normal, stop if feeling pain in the knee or kneecap",
    "exercisePushups": "Push-ups",
    "stepsPushups": "Starting position:\nGet into the starting push-up position, with your hands and toes touching the ground and back, arms and legs straight. To get to this position, you can lie down on your stomach, place your hands facing down next to your head, and lifting your arms up until they are straight.\n\nSteps:\n1. Bend at the elbows until your chest almost touches the ground, making sure your back is straight at all times.\n2. Use your arms to lift yourself back up to starting position.\n3. Repeat.",
    "exerciseAbCrunches": "Crunches",
    "stepsAbCrunches": "1. Lie down face up on the floor with knees bent.\n2. Curl the shoulders towards the pelvis. The hands can be behind or beside the neck or crossed over the chest.\n3. Repeat",
    "exerciseStepups": "Step-ups",
    "stepsStepups": "1. Stand facing a chair\n2. Step up onto the chair\n3. Step off the chair\n4. Repeat",
    "exerciseSquats": "Squats",
    "stepsSquats": "1. Stand with feet shoulder-width apart\n2. Move the hips back and bend the knees and hips to lower the torso\n3. Repeat",
    "exerciseChairDips": "Chair dips",
    "stepsChairDips": "1. Sit down on the front edge of a chair, back straight, hands holding the front edge\n2. Still holding the edge of the chair, arms extended, lift your butt and walk forward slightly so that it is a few inches from the chair.\n3. Slowly lower your body, keeping the back straight, until arms are at a right angle\n4. Raise your body again to the previous position, arms extended\n5. Repeat steps 3 and 4",
    "exercisePlank": "Forearm plank",
    "stepsPlank": "Starting position:\n1. Start down on all fours.\nArms should bent at a right angle, with shoulders right over elbows.\nBack should be straight, the whole body in a straight line.\n\nSteps:\n1. Hold this position.",
    "exerciseHighKnees": "High knees",
    "stepsHighKnees": "1. Run in place, putting knees as high up as is comfortable and switching legs at a quick pace",
    "exerciseLunges": "Lunges",
    "stepsLunges": "1. Stand with back straight\n2. Take a large step forward with your left leg\n3. Bring your pelvis down until you almost touch the floor with your right knee\n4. Bring your pelvis back up\n5. Return to standing position by stepping back\n6. Repeat, switching legs each time",
    "exerciseSplitSquatsLeft": "Split squats left",
    "exerciseSplitSquatsRight": "Split squats right",
    "stepsSplitSquats": "1. Stand with back straight\n2. Take a large step forward with your left leg\n3. Bring your pelvis down until you almost touch the floor with your right knee\n4. Bring your pelvis back up\n5. Repeat from step 3.",
    "exercisePushupRotations": "Push-up rotations",
    "stepsPushupRotations": "1. Do a standard push-up:\n1.a Lie down on your stomach\n1.b Place your hands near your ears\n1.c Use your arms to lift your stomach up until the arms are straight, keeping the back straight\n1.d Bend arms until chest almost touches the ground, making sure the back is straight\n1.e Lift your stomach up again, returning to step 3\n2. Rotate your body to the side so that the back is straight, the bottom hand supporting the body is fully extended, and only the bottom hand and foot touch the floor\n3. Repeat, changing sides at step 2 each time",
    "exerciseSidePlankLeft": "Side plank left",
    "exerciseSidePlankRight": "Side plank right",
    "stepsSidePlank": "1. Lie down on your side, with your bottom elbow at a right angle, arm sticking out\n2. Lift your pelvis off the floor by lifting your bottom shoulder up, keeping the forearm on the floor; your head, pelvis, and feet should be in a straight line\n3. Hold this position",
    "exerciseSideSplitSquatsLeft": "Side split squats left",
    "exerciseSideSplitSquatsRight": "Side split squats right",
    "stepsSideSplitSquats": "1. Stand tall and take a wide lateral stride, just greater than shoulder width.\n2. Bend one knee until your thigh is parallel to the floor. The bent knee must be in line with the foot.\n3. Push back to the starting position and repeat.",
    "exerciseBulgarianSplitSquatLeft": "Bulgarian split squats left",
    "exerciseBulgarianSplitSquatRight": "Bulgarian split squats right",
    "stepsBulgarianSplitSquat": "1. Stand tall in front of a chair and take a large step. Put the upper part of one of your feet on the chair.\n2. Bend the front knee, balancing with arms until the back knee almost touches the ground\n3. Push back to the starting position and repeat.",
    "exercisePistolSquatLeft": "Pistol squats left",
    "exercisePistolSquatRight": "Pistol squats right",
    "stepsPistolSquat": "1. Stand on one leg, with your other leg straight and slightly forward.\n2. Bend one knee slowly, descending into a squat and keeping your back and your other leg straight.\n3. Slowly raise yourself from the squat, straightening the bent knee and keeping the other leg straight.\n4. Repeat",
    "exerciseKneelingKickback": "Kneeling kickbacks",
    "stepsKneelingKickback": "1. Get down on all fours.\n2. Push one foot back until fully extended, concentrating on the gluteus muscles.\n3. Stay for one second, then return to the initial position.\n4. Repeat, alternating feet",
    "exerciseSingleLegCalfRaiseLeft": "Left leg calf raises",
    "exerciseSingleLegCalfRaiseRight": "Right leg calf raises",
    "stepsSingleLegCalfRaise": "1. Stand on the floor or on the edge of a step to increase the range of movement. Raise one foot, placing the upper part on your calf.\n2. Lift your heels until you're standing on toes.\n3. Stay in this position for three seconds, then lower your foot without touching the ground with your heel.",
    "exerciseJumpRopeBasic": "Jump rope: basic jumps",
    "stepsJumpRopeBasic": "This exercise requires a jump rope. Make sure the rope length is adjusted to your height. One way to check is to grab both handles with one hand and stand on the middle of the rope hanging on the ground with one foot. If the rope (excluding the handles) reaches just below your chest, its length is right. A shorter rope would be hazardous, as you might hit yourself, and a longer rope would make for bad form.\n1. Put your feet close together, bend the knees a bit, keep your head and body straight, keep elbows in, open your arms.\n2. Spin only your wrists with enough force to make the rope spin.\n3. Jump just high enough to pass the rope below your feet.\n4. Repeat from step 2.",
    "exerciseArmCircles": "Arm circles",
    "stepsArmCircles": "1. Stand up tall with your back straight.\n2. Bring your arms forward, raise them over your head, then continue the motion behind your back and down to the initial position.\n3. Keep circling your arms as described in step 2.",
    "exerciseMountainClimbers": "Mountain climbers",
    "stepsMountainClimbers": "Starting position:\nStart in the upright push-up position, or the high plank.\nHands should be directly under your shoulders.\nKeep your head in line with your back, facing the floor.\nFeet should be about hip-width apart.\n\nSteps:\n1. Move one knee toward the center of your body, towards your elbows, keeping the other leg extended.\n2. In a quick jumping movement, straighten the bent leg out and pull the other knee toward your body.\n3. Keep repeating step 2, alternating legs.\n\nNotes:\nThroughout the exercise, your back should remain as straight as possible – avoid a hump or a sagging back.",
    "exercisePushupBurpees": "Push-up burpees",
    "stepsPushupBurpees": "Starting position:\nStand straight, feet hip-width apart.\n\nSteps:\n1. Squat low and support yourself on the floor with your hands between the knees and in front of your feet, your back straight.\n2. Keeping your hands on the floor, jump your legs backward into high plank position.\n3. Perform a push-up.\n4. Jump your feet forward to return to the squat position.\n5. Repeat.",
    "exercise4countBurpees": "4-count burpees",
    "steps4countBurpees": "Starting position:\nStand straight, feet hip-width apart.\n\nSteps:\n1. Squat low and support yourself on the floor with your hands between the knees and in front of your feet, your back straight.\n2. Keeping your hands on the floor, jump your legs backward into high plank position.\n3. Jump your feet forward to return to the squat position.\n4. Repeat.",
    "exerciseNoPushupBurpees": "No push-up burpees",
    "stepsNoPushupBurpees": "Starting position:\nStand straight, feet hip-width apart.\n\nSteps:\n1. Squat low and support yourself on the floor with your hands between the knees and in front of your feet, your back straight.\n2. Keeping your hands on the floor, jump your legs backward into high plank position.\n3. Jump your feet forward to return to the squat position.\n4. Jump up.\n5. Repeat.",
    "exerciseSquatThrusts": "Squat thrusts",
    "stepsSquatThrusts": "Starting position:\nStart in high plank position: back, arms, and legs straight and hands shoulder-width apart.\n\nSteps:\n1. Jump your feet forward between your arms, keeping your back flat.\n2. Keeping your hands on the floor, jump your legs back into high plank position.\n3. Repeat.",
    "exerciseReverseLunges": "Reverse lunges",
    "stepsReverseLunges": "Starting position:\nStand straight, feet hip-width apart.\n\nSteps:\n1. Step backward with one leg so it can bend comfortably to a 90 degree angle.\n2. Slowly bend both knees to form 90 degree angles.\n3. Return to the starting position.\n4. Repeat, alternating legs.",
    "exerciseLegRaises": "Leg raises",
    "stepsLegRaises": "Starting position:\nLie down on your back, feet together, arms by your sides.\n\nSteps:\n1. Bend your knees, then straighten them to point straight up.\n2. Keeping your legs straight, lower them down together without touching the floor. The lower you go, the more intense the exercise.\n3. Raise both legs together to point straight up again.\n4. Repeat from step 2.",
    "exerciseFloorDips": "Floor dips",
    "stepsFloorDips": "Starting position:\nSit with your arms behind you, supporting your back.\nYour fingers should point forward.\nYour knees should be bent, feet together.\n\nSteps:\n1. Raise your hips off the ground, straightening your arms.\n2. Bend your elbows, bringing your hips down.\n3. Straighten your arms, returning to the previous position.\n4. Repeat steps 2 and 3.\n\nNotes:\nThe exercise's difficulty depends on how high you bring your hips.",
    "exercisePikePushups": "Pike push-ups",
    "stepsPikePushups": "Staring position:\nDownward facing dog: Your body should make a V shape, with a straight back, arms, and legs. Your hips should be up in the air.\nYou can get to this position by walking your hands back from a high plank.\n\nSteps:\n1.Bend your elbows to the side, keeping your back and legs straight and moving your head closer to the floor.\n2. Straighten your arms, pushing your hips back up and keeping your back and legs straight.\n3. Repeat.",
    "exerciseChinTuck": "Chin tuck",
    "stepsChinTuck": "Starting position:\nSit or stand with your back straight.\n\nSteps:\n1. Use fingers on your chin to slowly tuck your chin in, moving your head back to align it with your spine.\n2. Hold for 5 seconds.\n3. Go back to normal head position and repeat.",
    "exerciseHeadTurn": "Head turns",
    "stepsHeadTurn": "Starting position:\nSit or stand with your back straight and shoulders down.\n\nSteps:\n1. Sit or stand up straight, shoulders dropped.\n2. Turn your head to the side as far as possible. Stop when you hit a barrier and hold.\n3. Return to center position and repeat, changing sides.",
    "exerciseNeckFlexion": "Back neck stretch",
    "stepsNeckFlexion": "Starting position:\nSit upright on a chair or a firm pillow.\n\nSteps:\n1. Breathe out and tilt your head forward, chin to chest, putting hands behind your head.\n2. Use your hands to pull your head down very lightly. Hold for 5 seconds.\n3. Draw shoulders back and down using the muscles in your back. This should increase the neck stretch. Hold for 5 seconds.\n4. Now gently push your head back up, while also pulling it down with your hands. Balance both forces so that your head doesn't move. Hold for at least 5 seconds.\n5. Bring your fingers to your forehead and use them to gently move your head back into original position.",
    "exerciseLeftNeckStretch": "Left neck stretch",
    "exerciseRightNeckStretch": "Right neck stretch",
    "stepsLateralNeckStretch": "Starting position:\nSit or stand with your back straight.\n\nSteps:\n1. Tilt your head to the side and hold for 10 seconds to stretch the side of your neck.\n2. With the opposite hand on top of your head, gently pull to stretch further. Hold for 10 seconds.\n3. Turn your chin to your shoulder. Hold for 10 seconds.\n4. Release and return to starting position.",
    "exerciseShoulderShrug": "Shoulder shrugs",
    "stepsShoulderShrug": "Starting position:\nSit or stand with your back straight.\n\nSteps:\n1. Lift shoulders straight up as far as possible and hold for 5 sec.\n2. Release shoulders back down to a relaxed position.\n3. Repeat.",
    "exerciseFrontNeckStretch": "Front neck stretch",
    "stepsFrontNeckStretch": "Starting position:\nSit or stand with your back straight.\n\nSteps:\n1. Open mouth wide.\n2. Slowly tilt head back with mouth opened. If you feel the need for support, clasp your hands behind your head.\n3. Very slowly close and open your mouth.\n4. At the end, slowly return to starting position and close mouth.",
    "exerciseBackLeftNeckStretch": "Back and left neck stretch",
    "exerciseBackRightNeckStretch": "Back and right neck stretch",
    "stepsBackLateralNeckStretch": "Starting position:\nSit upright on a chair or a firm pillow.\n\nSteps:\n1. Breathe out and tilt head forward, chin to chest, with hands behind your head.\n2. Keeping head forward, use waist muscles to turn as far as comfortable to the left.\n3. Use hands to pull head down very slightly, controlling the stretch.\n4. Draw shoulders back and down using the muscles in your back. Hold for 5 seconds.\n5. Turn back into center position.\n6. Bring your hands to your forehead and push head upright again into normal position.",
    "exerciseChinTuckFlexionRotation": "Chin tuck with flexion with rotation",
    "stepsChinTuckFlexionRotation": "Starting position:\nSit or stand with your back straight.\n\nSteps:\n1. Tuck your chin in, moving your head back.\n2. Tilt your head forward until you feel a stretch in the back of your neck.\n3. Rotate your head to the side on exhale. Use fingers on your temples to guide your head and apply a little bit of overpressure.\n4. Hold for 5 seconds.\n5. Rotate back, keeping your head down.\n6. Repeat from step 3, switching sides.",
    "exerciseFWShoulderRotation": "Forward shoulder rotation",
    "exerciseBWShoulderRotation": "Backward shoulder rotation",
    "stepsShoulderRotation": "Starting position:\nSit or stand with your back straight.\n\nSteps:\n1. Place your hands on your shoulders.\n2. Repeatedly rotate both shoulder joints in a circular motion at a moderate pace.",
    "exerciseHighPlank": "High plank",
    "stepsHighPlank": "Starting position:\nGet into the high plank position: your hands and toes should be touching the ground, your back, arms and legs should be straight.\nTo get to this position, you can lie down on your stomach, place your hands facing down next to your head, and lifting your arms up until they are straight.\n\nSteps:\n1. Maintain the starting position for the entire duration of the exercise.",
    "exerciseChildsPose": "Child's pose",
    "stepsChildsPose": "Starting position:\nStart on all fours, knees, toes, and hands touching the ground. Your two big toes should be touching.\n\nSteps:\n1. Move your knees so that they're about hip-width apart.\n2. On an exhale, move your pelvis back to sit on your heels. Your hands should still be touching the ground.\n3. Relax your upper body, lowering your forehead to the floor and letting your hands move forward naturally.\n4. Stay in this pose.\n\nTips:\n* To leave the pose, walk your arms back under your shoulders and move your upper body up into a seated position.",
    "exercisePullUp": "Pull-up",
    "stepsPullUp": "Starting position:\nStart by hanging from the pull-up bar, palms facing away and feet off the floor.\nYour hands should be slightly wider than shoulder-width apart. Only slightly so, so that elbows are still in front of the body rather than squarely to the side.\nYour body should be straight and pointed slightly forward. Your arms should be extended.\n\nSteps:\n1. Use your strength to pull your body up evenly, bringing your chest closer to the pull-up bar and your chin just above it. Do NOT lift yourself up using momentum, such as kicking.\n2. Carefully lower your body back down to starting position.\n3. Repeat.\n\nTips:\n- To do pull-ups correctly, you must first build up strength in several key areas, including shoulders, arms, and abs. Start with pull-ups only after you have built up enough strength with other exercises.",
    "exerciseKettlebellDeadlift": "Kettlebell deadlift",
    "stepsKettlebellDeadlift": "Starting position:\nStand hip-width apart, with your kettlebell centered between your ankles. Your back should be straight, your head facing forward.\n\nSteps:\n1. Hinge at the hips and slightly bend at the knees to put your hands on the kettlebell handles. Your back should be straight as you perform the movement.\n2. Grab the kettlebell handles, with your hands pushing in opposite directions as if to pull the handle apart.\n3. While contacting your abs and glutes, stand straight up.\n4. Hinge at the hips again to bring the kettlebell back down, similarly to step 1.\n5. Repeat from step 3.\n\nTips:\n* Be sure you're performing the movements correctly, as doing otherwise can lead to injury. For example, do not squat instead of hinging at the hips, do not round your back while reaching for the kettlebell, and do not lean back while standing up.",
    "exerciseSumoSquat": "Sumo squat",
    "stepsSumoSquat": "Starting position:\nStand with legs wide and toes turned outwards.\n\nSteps:\n1. Slowly sink down by bending your knees out. Reach arms forward. Keep your head, chest and hips in a straight line. Squeeze your glutes.\n2. Push back up into starting position.\n3. Repeat this exercise in a pulsing motion."
}
