{
    "workoutLeg": "Vježba za noge",
    "workoutScientific7Minute": "Znanstveno 7-minutno vježbanje",
    "exerciseBulgarianSplitSquatRight": "Bugarski iskorak na stranu desno",
    "exerciseBulgarianSplitSquatLeft": "Bugarski iskorak na stranu lijevo",
    "exerciseSideSplitSquatsRight": "Iskorak na stranu desno",
    "exerciseSideSplitSquatsLeft": "Iskorak na stranu lijevo",
    "exerciseBackLateralNeckStretch": "Istezanje vrata prema natrag i na stranu",
    "exerciseFrontNeckStretch": "Istezanje vrata prema naprijed",
    "exerciseLateralNeckStretch": "Istezanje vrata na stranu",
    "workoutNeckShoulderStretch": "Istezanje vrata i ramena",
    "exerciseNeckFlexion": "Fleksija vrata",
    "exerciseSidePlankRight": "Bočni izdržaj desno",
    "exerciseSidePlankLeft": "Bočni izdržaj lijevo",
    "exerciseJumpingJacks": "Skokovi s raskorakom",
    "exerciseWallSit": "Čučnjevi uz zid",
    "exerciseStepups": "Stupanje na stolicu",
    "exercisePushupRotations": "Sklekovi s rotacijom",
    "exerciseSplitSquatsRight": "Iskorak desno",
    "exerciseSplitSquatsLeft": "Iskorak lijevo",
    "exerciseLunges": "Iskoraci",
    "exerciseHighKnees": "Trčanje na mjestu",
    "exercisePlank": "Izdržaj na podlakticama",
    "exerciseChairDips": "Propadanje ut pomoć stolice",
    "exerciseSquats": "Čučnjevi",
    "exerciseAbCrunches": "Trbušnjaci",
    "exercisePushups": "Sklekovi"
}
