{
    "btnDoneEditingTiming": "انتهى تعديل التوقيت",
    "btnAdjustTiming": "ضبط التوقيت",
    "btnDisableTTS": "موسيقى بدلا من الصوت",
    "btnAddALinkToPhotos": "أضف ارتباطًا إلى صورتك (صورك)",
    "btnTakeAPhoto": "التقاط صورة",
    "btnAddPhotoFromGallery": "إضافة صورة من المعرض",
    "btnSubmitViaEmail": "إرسال عبر البريد الإلكتروني",
    "btnAddCustomExerice": "اقتراح تمرين مخصص",
    "btnCreateCustomWorkout": "إنشاء تمرين مخصص",
    "btnMoreInfo": "المزيد من المعلومات",
    "btnOK": "حسنا",
    "btnDiscard": "تجاهل",
    "btnCancel": "إلغاء",
    "btnDone": "إنتهى",
    "btnDuplicate": "مكرره",
    "btnDelete": "حذف",
    "btnEdit": "تعديل",
    "btnAddExercise": "أضف تمارين",
    "btnNextExercise": "التمرين التالي",
    "btnPreviousExercise": "التمرين السابق",
    "btnResumeWorkout": "استئناف التمرين",
    "btnStartWorkout": "ابدأ التمرين",
    "txtOther": "آخر",
    "txtCardio": "القلب",
    "txtStretchingAndYoga": "تمارين الإطالة واليوغا",
    "txtStrength": "القوة",
    "txtCouldNotOpenURL": "تعذر فتح عنوان URL.",
    "txtDonate": "تبرّع",
    "txtSourceCode": "الشفرة المصدرية",
    "txtParticipate": "مشاركة",
    "txtBatteryOptimization": "على بعض الأجهزة، قد تحتاج إلى تعطيل تحسين البطارية لتطبيق Feeel لكي يعمل هذا بشكل موثوق.",
    "txtThemeDark": "داكن",
    "txtThemeLight": "مضيء",
    "txtThemeSystem": "افتراضيات النظام",
    "txtTheme": "السمة",
    "txtDiscardChanges": "تجاهل التغييرات؟",
    "txtCustomDuration": "مدة مخصصة (s.)",
    "txtFeeelDescription": "تطبيق تمرين منزلي مفتوح المصدر يحترم خصوصيتك",
    "txtAboutFeeel": "حول تطبيق Feeel",
    "txtAddExerciseFirst": "إضافة تمرين أولا",
    "txtNotificationTime": "وقت التنبيه",
    "txtNeedCameraPermission": "لا يمكن التقاط الصور بدون إذن الكاميرا",
    "txtRemindMe": "التذكير اليومي",
    "txtNotificationDesc": "يستغرق الأمر بضع دقائق فقط لتشعر بالانتعاش واللياقة",
    "txtNotificationTitle": "حان الوقت لارتداء ملابس التمرين!",
    "txtNotificationInfoDesc": "تذكير يومي بالتمرين",
    "txtNotificationInfoTitle": "التنبيه اليومي",
    "txtNegativeNumber": "غير إيجابي",
    "txtNotANumber": "غير رقمي",
    "txtCustom": "مخصص",
    "txtBreakDuration": "مدة الاستراحة",
    "txtExerciseDuration": "مدة التمرين",
    "txtDuration": "المدة",
    "txtWorkoutExercisesEmpty": "يرجى إضافة تمرين واحد على الأقل",
    "txtWorkoutTitleEmpty": "الرجاء تحديد عنوان التمرين",
    "txtSettings": "الإعدادات",
    "txtSubmitExerciseMessageContents": "مرحبًا\n\nسأرسل اقتراحا بممارسة التمارين أعلن بموجب هذا أن كلا من الصور المرفقة والوصف هي تماما عملي الخاص. من خلال إرسال هذه الرسالة ، أوافق بشكل لا رجعة فيه على إصدار الاسم والوصف المقدم بموجب ترخيص CC BY-SA 4.0 و AGPLv3 مع ترخيص استثناء متجر التطبيقات. أعطي أيضا الإذن لمعالجة الصورة المرفقة بدقة غير واضحة. بعد معالجتها ، سأقيم ما إذا كنت على استعداد لترخيصها بموجب ترخيص CC BY-SA 4.0.\n\nاسم التمرين: ٪1s\nخطوات التمرين:\n٪2s",
    "txtSubmitExerciseMessageTitle": "اقتراح التمرين: ٪s",
    "txtEmailCouldNotBeSent": "تعذر إرسال البريد الإلكتروني",
    "txtHowToPerformExercise": "كيفية أداء التمرين (اختياري)",
    "txtExerciseName": "اسم التمرين",
    "txtContributeExerciseExplainer": "Feeel يعتمد على المتطوعين مثلك لتقديم التدريبات وصور التدريبات. ستتم معالجة الصور أولا بشكل خاص في إصدارات مثلثة ، ثم يتم إرسالها إليك للموافقة عليها ، ثم يتم إصدارها فقط في التطبيق. يجب أن تكون جميع الصور والنصوص المقدمة من عملك فقط. شكرا للمساهمة!",
    "txtSubmitNewExercise": "مساهمة",
    "txtYoureGlowing": "أنت متوهج!",
    "txtCategoryLegs": "السيقان",
    "txtCategoryFullBody": "كامل الجسم",
    "txtWorkoutToMakeYouFeelBest": "قم بتصميم التمرين الذي يجعلك تشعر بشكل أفضل",
    "txtBeYourOwnCoach": "كن مدربك الخاص!",
    "txtWorkoutTitle": "عنوان التمرين",
    "txtImageMissing": "الصورة مفقودة",
    "txtTapForControls": "اضغط على عناصر التحكم",
    "txtBreak": "استراحة!",
    "txtSecondsLeft5plus": "٪d ثانية متبقية",
    "txtLetsGoFirstUp": "لنذهب! أولا: ٪s",
    "txtNextUp": "التالي:",
    "txtYouDidIt": "أنت فعلت ذلك!",
    "txtDurationLong": "٪1d دقيقة، ٪2d ثانية."
}
