{
    "btnAdjustTiming": "Ajuster le minutage",
    "btnDisableTTS": "Utiliser des sons au lieu de la parole",
    "btnAddALinkToPhotos": "Ajouter un lien vers vos photos",
    "btnTakeAPhoto": "Prendre une photo",
    "btnAddPhotoFromGallery": "Ajouter une photo de la galerie",
    "btnSubmitViaEmail": "Soumettre par courriel",
    "btnAddCustomExerice": "Proposer un exercice personnalisé",
    "btnCreateCustomWorkout": "Créer un entraînement personnalisé",
    "btnMoreInfo": "Plus d’infos",
    "btnDone": "Terminé",
    "btnDelete": "Supprimer",
    "btnEdit": "Modifier",
    "btnAddExercise": "Ajouter des exercices",
    "btnNextExercise": "Exercice suivant",
    "btnPreviousExercise": "Exercice précédent",
    "btnResumeWorkout": "Reprendre l’entraînement",
    "btnStartWorkout": "Démarrer l’entraînement",
    "txtFeeelDescription": "Une application d’exercice à domicile à code source ouvert qui respecte votre vie privée",
    "txtAboutFeeel": "À propos de Feeel",
    "txtAddExerciseFirst": "Ajoutez d’abord un exercice",
    "txtNotificationTime": "Heure de la notification",
    "txtNeedCameraPermission": "Impossible de prendre des photos sans l’autorisation de l’appareil photo",
    "txtRemindMe": "Rappel quotidien",
    "txtNotificationDesc": "Il ne faut que quelques minutes pour se sentir frais et en forme",
    "txtNotificationTitle": "Il est temps de mettre des vêtements de sport !",
    "txtNotificationInfoDesc": "Un rappel quotidien pour s’entraîner",
    "txtNotificationInfoTitle": "Notification journalière",
    "txtNegativeNumber": "Non positif",
    "txtNotANumber": "Non numérique",
    "txtCustom": "Personnaliser",
    "txtBreakDuration": "Durée de la pause",
    "txtExerciseDuration": "Durée de l’exercice",
    "txtDuration": "Durée",
    "txtWorkoutExercisesEmpty": "Veuillez ajouter au moins 1 exercice",
    "txtWorkoutTitleEmpty": "Veuillez préciser un titre pour l’entraînement",
    "txtSettings": "Paramètres",
    "txtSubmitExerciseMessageContents": "Bonjour,\n\nJe vous envoie une proposition d’exercice. Je déclare par la présente que les images jointes et la description sont entièrement de mon travail personnel. En envoyant ce message, j’accepte irrévocablement que le nom et la description soumis soient publiés sous une licence CC BY-SA 4.0 et une licence AGPLv3 avec exception magasin d’applications. Je donne également l’autorisation de traiter la ou les images ci-jointes pour en faire des variantes à faible polysémie. Après leur traitement, j’évaluerai si je suis prêt·e à les diffuser sous la licence CC BY-SA 4.0.\n\nNom de l’exercice : %1s\nÉtapes de l’exercice :\n%2s",
    "txtSubmitExerciseMessageTitle": "Proposition d’exercice : %s",
    "txtEmailCouldNotBeSent": "Le courriel n’a pas pu être envoyé",
    "txtHowToPerformExercise": "Comment faire l’exercice (facultatif)",
    "txtExerciseName": "Nom de l’exercice",
    "txtContributeExerciseExplainer": "Feeel compte sur des volontaires comme vous pour soumettre des exercices et des photos d’exercices. Les photos seront d’abord traitées de manière privée pour obtenir des versions triangulées, puis elles vous seront envoyées pour approbation, et seulement ensuite elles seront publiées dans l’application. Toutes les photos et le texte soumis doivent être de vous. Merci de votre contribution !",
    "txtSubmitNewExercise": "Contribuez",
    "txtYoureGlowing": "Vous êtes rayonnant·e !",
    "txtCategoryLegs": "Jambes",
    "txtCategoryFullBody": "Tout le corps",
    "txtYouDidIt": "Vous avez réussi !",
    "txtBeYourOwnCoach": "Soyez votre propre entraîneur !",
    "txtWorkoutToMakeYouFeelBest": "Concevez l’entraînement qui vous fait vous sentir le mieux",
    "txtWorkoutTitle": "Titre de l’exercice",
    "txtImageMissing": "Images manquantes",
    "txtTapForControls": "Appuyez pour les commandes",
    "txtBreak": "Pause !",
    "txtSecondsLeft5plus": "Encore %d secondes",
    "txtLetsGoFirstUp": "Allons-y ! Première étape : %s",
    "txtNextUp": "Ensuite :",
    "btnDuplicate": "Dupliquer",
    "btnDoneEditingTiming": "Modification de la durée terminée",
    "btnOK": "OK",
    "btnDiscard": "Abandonner",
    "btnCancel": "Annuler",
    "txtDiscardChanges": "Abandonner les modifications ?",
    "txtCustomDuration": "Durée personnalisée (s.)",
    "txtThemeDark": "Sombre",
    "txtThemeLight": "Clair",
    "txtThemeSystem": "Par défaut du système",
    "txtTheme": "Thème",
    "txtSourceCode": "Code source",
    "txtDonate": "Faire un don",
    "txtCouldNotOpenURL": "Impossible d'ouvrir URL.",
    "txtBatteryOptimization": "Sur certains appareils, il se peut que vous deviez désactiver l'optimisation de la batterie pour Feeel pour que ceci fonctionne de manière fiable.",
    "txtParticipate": "Rejoignez",
    "btnEnableTTS": "Utiliser les commandes vocales",
    "txtOther": "Autre",
    "txtCardio": "Cardio",
    "txtStretchingAndYoga": "Étirement et yoga",
    "txtStrength": "Force",
    "txtDurationLong": "%1d min %2d s"
}
